{
    "@context": "https://doi.org/10.5063/schema/codemeta-2.0",
    "type": "SoftwareSourceCode",
    "author": [
        {
            "type": "Person",
            "familyName": "Castera",
            "givenName": "Guillaume"
        },
        {
            "type": "Person",
            "familyName": "Chabassier",
            "givenName": "Juliette"
        }
    ],
    "codeRepository": "https://gitlab.inria.fr/pianotouch/pianolib",
    "dateCreated": "2020-10-01",
    "datePublished": "2024-05-08",
    "description": "C++ toolbox for piano simulation",
    "license": "https://spdx.org/licenses/GPL-3.0",
    "name": "pianolib",
    "programmingLanguage": "C++"
}